{
  "$schema": "https://json-schema.org/draft/2020-12/schema",
  "type": "object",
  "properties": {
    "deploy": {
      "type": "object",
      "required": [
        "ctl_panel"
      ],
      "properties": {
        "ctl_panel": {
          "type": "object",
          "required": [
            "loop",
            "workdir",
            "outdir",
            "k8s",
            "docker",
            "docker_compose"
          ],
          "properties": {
            "loop": {
              "type": "array"
            },
            "srcdir": {
              "type": "string"
            },
            "workdir": {
              "type": "string"
            },
            "outdir": {
              "type": "string"
            },
            "k8s": {
              "type": "object",
              "required": [
                "filename",
                "deploy_yml",
                "kubectl_mk"
              ],
              "properties": {
                "deploy_yml": {
                  "type": "string"
                },
                "kubectl_mk": {
                  "type": "string"
                }
              }
            },
            "docker": {
              "type": "object",
              "required": [
                "deploy_mk"
              ],
              "properties": {
                "deploy_mk": {
                  "type": "string"
                }
              }
            },
            "docker_compose": {
              "type": "object",
              "required": [
                "filename",
                "deploy_yml",
                "deploy_mk"
              ],
              "properties": {
                "filename": {
                  "type": "string"
                },
                "deploy_yml": {
                  "type": "string"
                },
                "deploy_mk": {
                  "type": "string"
                }
              }
            }
          }
        },
        "k8s": {
          "type": "object",
          "properties": {
          }
        },
        "docker": {
          "type": "object",
          "properties": {
          }
        },
        "docker_compose": {
          "type": "object",
          "properties": {
          }
        }
      }
    }
  }
}